module github.com/tomberch/awscli

go 1.21.1

require (
	github.com/rs/zerolog v1.30.0
	github.com/spf13/cobra v1.7.0
)

require (
	github.com/inconshreveable/mousetrap v1.1.0 // indirect
	github.com/mattn/go-colorable v0.1.12 // indirect
	github.com/mattn/go-isatty v0.0.14 // indirect
	github.com/spf13/pflag v1.0.5 // indirect
	golang.org/x/sys v0.0.0-20210927094055-39ccf1dd6fa6 // indirect
)
